[
  {
    "id":"1",
  "website":"elevjobs.com",
  "logo":"exotel.png",
  "name":"Exotel"
},
{
  "id":"2",
"website":"elevjobs.com",
"logo":"apple.jpg",
"name":"Apple"
},
{
  "id":"3",
"website":"elevjobs.com",
"logo":"practo.png",
"name":"Practo"
},
{
  "id":"4",
"website":"elevjobs.com",
"logo":"filpcart.jpg",
"name":"Filpcart"
},
{
  "id":"5",
"website":"elevjobs.com",
"logo":"quicker.png",
"name":"Quicker"
},
{
  "id":"6",
"website":"elevjobs.com",
"logo":"exotel.png",
"name":"Exotel"
},
{
  "id":"7",
"website":"elevjobs.com",
"logo":"apple.jpg",
"name":"Apple"
},
{
  "id":"8",
"website":"elevjobs.com",
"logo":"practo.png",
"name":"Practo"
},
{
  "id":"9",
"website":"elevjobs.com",
"logo":"flipcart.jpg",
"name":"Flipkart"
},
{
  "id":"10",
"website":"elevjobs.com",
"logo":"quicker.png",
"name":"Quicker"
}
]
